Volcanic eruption
…
I will use select () function to select; end and start year, eruption category ,evidence method dating and volcanic name.

At these level i realised something is wrong with my dates they got distorted. I had to work backwards to sort it out to maintain the original format.

erup_select<- erup_final2 %>% select(volcano_name,eruption_category,evidence_method_dating,start_year,end_year)

# I tried to run pivote wide but realised an error of duplicate
# To understand what these duplicates are i used function summarise and filter. I found out it is not duplicate rather it's frequency of occurence.
erup_select %>%
  dplyr::summarise(n = dplyr::n(), .by = c(volcano_name, evidence_method_dating, eruption_category)) %>%
  dplyr::filter(n > 1)

# A tibble: 1,151 × 4
   volcano_name           evidence_method_dating  eruption_category      n
   <chr>                  <chr>                   <chr>              <int>
 1 Soputan                Historical Observations Confirmed Eruption    41
 2 San Miguel             Historical Observations Confirmed Eruption    40
 3 Fournaise, Piton de la Historical Observations Confirmed Eruption   178
 4 Rincon de la Vieja     Historical Observations Confirmed Eruption    25
 5 Fernandina             Historical Observations Confirmed Eruption    28
 6 Taal                   Historical Observations Confirmed Eruption    34
 7 Kuchinoerabujima       Historical Observations Confirmed Eruption    17
 8 Whakaari/White Island  Historical Observations Confirmed Eruption    36
 9 Semisopochnoi          Historical Observations Confirmed Eruption     5
10 Nishinoshima           Historical Observations Confirmed Eruption     5
# ℹ 1,141 more rows
…
